4 Tutorial | A Guide to Mapping ICPSR Data in R Studio
…
Figure 4.2: ICPSR dataset open in spreadsheet software with dataset tab open

The fact that the ICPSR dataset has two sheets within it is important; it means that when we load it into R, we’ll have to explicitly specify the sheet (i.e. the “Dataset” sheet) that we want to import.

Now, let’s go ahead and load the “Dataset” sheet of the ICPSR data file into R Studio, using the following code:

# Loads ICPSR data into R Studio
read_excel("Gov_Responses2Covid19_last.xlsx", sheet="Dataset")

As we noted above, read_excel is the function used to bring in Excel spreadsheet data into R. The function has two arguments; the first (Gov_Responses2Covid19_last.xlsx) is the name of the file we want to import, while the second (sheet="Dataset") establishes that we specifically want to import the the “Dataset” sheet from that Excel file.

If the importing process is successful, we will see the dataset print out into our R console. It will look something like this:

# A tibble: 62,700 x 43
   country geoid iso   d     cases deaths school school_local domestic domestic_local travel travel_partial travel_dom
   <chr>   <chr> <chr> <chr> <dbl>  <dbl>  <dbl>        <dbl>    <dbl>          <dbl>  <dbl>          <dbl>      <dbl>
 1 Aruba   AW    ABW   43831     0      0      0            0       NA             NA     NA             NA         NA
 2 Aruba   AW    ABW   43832     0      0      0            0       NA             NA     NA             NA         NA
 3 Aruba   AW    ABW   43833     0      0      0            0       NA             NA     NA             NA         NA
 4 Aruba   AW    ABW   43834     0      0      0            0       NA             NA     NA             NA         NA
 5 Aruba   AW    ABW   43835     0      0      0            0       NA             NA     NA             NA         NA
 6 Aruba   AW    ABW   43836     0      0      0            0       NA             NA     NA             NA         NA
 7 Aruba   AW    ABW   43837     0      0      0            0       NA             NA     NA             NA         NA
 8 Aruba   AW    ABW   43838     0      0      0            0       NA             NA     NA             NA         NA
 9 Aruba   AW    ABW   43839     0      0      0            0       NA             NA     NA             NA         NA
10 Aruba   AW    ABW   43840     0      0      0            0       NA             NA     NA             NA         NA
# … with 62,690 more rows, and 30 more variables: travel_dom_partial <dbl>, curf <dbl>, curf_partial <dbl>,
#   mass <dbl>, mass_partial <dbl>, elect <dbl>, elect_partial <dbl>, sport <dbl>, sport_partial <dbl>, rest <dbl>,
#   rest_local <dbl>, testing <dbl>, testing_narrow <dbl>, masks <dbl>, masks_partial <dbl>, surveillance <dbl>,
#   surveillance_partial <dbl>, state <dbl>, state_partial <dbl>, cash <dbl>, wage <dbl>, credit <dbl>, taxc <dbl>,
#   taxd <dbl>, export <dbl>, rate <dbl>, Rigidity_Public_Health <chr>, Economic_Measures <chr>,
#   population_2019 <chr>, continent <chr>
…
More generally, the process of assignment effectively equates the output created by the code on the right side of the assignment operator (<-) to an object with a name that is specified on the left side of the assignment operator. Whenever we want to look at the contents of an object (i.e. the output created by the code to the right side of the assignment operator), we simply print the name of the object in the R console (or print the name and run it within a script).

While the example above was very simple, we can assign virtually any R code, and by extension, the data structure(s) generated by that code (such as datasets, maps, graphs) to an R object. Indeed, we’ll use the basic principle of object assignment introduced above to assign our ICPSR dataset of interest to an object, which we will name “covid_data” (note that object names are arbitrary and could be virtually anything, but it is good practice for object names to describe their contents):

# Imports "Dataset" sheet from ICPSR Excel file into R Studio, and assigns the dataset to an object named "covid_data"
covid_data<-read_excel("Gov_Responses2Covid19_last.xlsx", sheet="Dataset")

The code above imports the dataset of interest using the code we used above (read_excel("Gov_Responses2Covid19_last.xlsx", sheet="Dataset"), but then takes the additional step of assigning the result of this expression (i.e. the imported ICPSR dataset) on the right side of the assignment operator to an object named covid_data. In other words, the code assigns the output of the expression that results from running read_excel("Gov_Responses2Covid19_last.xlsx", sheet="Dataset") (i.e. the ICPSR dataset) to an object named covid_data.

We can confirm that the ICPSR dataset we imported has been assigned to an object named covid_data by typing and running covid_data in our script (or simply typing it into the console), and seeing that it prints the ICPSR dataset to our console:

# Prints contents of "covid_data" object to the console
covid_data

# A tibble: 62,700 x 43
   country geoid iso   d     cases deaths school school_local domestic domestic_local travel travel_partial travel_dom
   <chr>   <chr> <chr> <chr> <dbl>  <dbl>  <dbl>        <dbl>    <dbl>          <dbl>  <dbl>          <dbl>      <dbl>
 1 Aruba   AW    ABW   43831     0      0      0            0       NA             NA     NA             NA         NA
 2 Aruba   AW    ABW   43832     0      0      0            0       NA             NA     NA             NA         NA
 3 Aruba   AW    ABW   43833     0      0      0            0       NA             NA     NA             NA         NA
 4 Aruba   AW    ABW   43834     0      0      0            0       NA             NA     NA             NA         NA
 5 Aruba   AW    ABW   43835     0      0      0            0       NA             NA     NA             NA         NA
 6 Aruba   AW    ABW   43836     0      0      0            0       NA             NA     NA             NA         NA
 7 Aruba   AW    ABW   43837     0      0      0            0       NA             NA     NA             NA         NA
 8 Aruba   AW    ABW   43838     0      0      0            0       NA             NA     NA             NA         NA
 9 Aruba   AW    ABW   43839     0      0      0            0       NA             NA     NA             NA         NA
10 Aruba   AW    ABW   43840     0      0      0            0       NA             NA     NA             NA         NA
# … with 62,690 more rows, and 30 more variables: travel_dom_partial <dbl>, curf <dbl>, curf_partial <dbl>,
#   mass <dbl>, mass_partial <dbl>, elect <dbl>, elect_partial <dbl>, sport <dbl>, sport_partial <dbl>, rest <dbl>,
#   rest_local <dbl>, testing <dbl>, testing_narrow <dbl>, masks <dbl>, masks_partial <dbl>, surveillance <dbl>,
#   surveillance_partial <dbl>, state <dbl>, state_partial <dbl>, cash <dbl>, wage <dbl>, credit <dbl>, taxc <dbl>,
#   taxd <dbl>, export <dbl>, rate <dbl>, Rigidity_Public_Health <chr>, Economic_Measures <chr>,
#   population_2019 <chr>, continent <chr>
…
